{
    "m_SelectedDeviceId": "R58M324QZ4M",
    "m_SelectedPackage": {
        "deviceId": "R58M324QZ4M",
        "name": "com.Anubis.Basra",
        "processId": 30554,
        "exited": false
    },
    "m_SelectedPriority": 0,
    "m_KnownPackagesForSerialization": [
        {
            "deviceId": "R58M324QZ4M",
            "name": "com.sec.android.app.launcher",
            "processId": 9922,
            "exited": false
        },
        {
            "deviceId": "R58M324QZ4M",
            "name": "com.Anubis.Basra",
            "processId": 20257,
            "exited": true
        },
        {
            "deviceId": "R58M324QZ4M",
            "name": "com.Anubis.Basra",
            "processId": 21311,
            "exited": true
        },
        {
            "deviceId": "R58M324QZ4M",
            "name": "com.Anubis.Basra",
            "processId": 23028,
            "exited": true
        },
        {
            "deviceId": "R58M324QZ4M",
            "name": "com.Anubis.Basra",
            "processId": 27091,
            "exited": true
        },
        {
            "deviceId": "R58M324QZ4M",
            "name": "com.Anubis.Basra",
            "processId": 27219,
            "exited": false
        },
        {
            "deviceId": "R58M324QZ4M",
            "name": "com.Anubis.Basra",
            "processId": 27950,
            "exited": false
        },
        {
            "deviceId": "R58M324QZ4M",
            "name": "com.Anubis.Basra",
            "processId": 30554,
            "exited": false
        },
        {
            "deviceId": "882dca2",
            "name": "com.Anubis.Basra",
            "processId": 22294,
            "exited": true
        },
        {
            "deviceId": "882dca2",
            "name": "com.Anubis.Basra",
            "processId": 23873,
            "exited": false
        },
        {
            "deviceId": "882dca2",
            "name": "com.Anubis.Basra",
            "processId": 26783,
            "exited": false
        },
        {
            "deviceId": "882dca2",
            "name": "com.Anubis.Basra",
            "processId": 27840,
            "exited": false
        },
        {
            "deviceId": "882dca2",
            "name": "com.Anubis.Basra",
            "processId": 29863,
            "exited": false
        }
    ],
    "m_Tags": {
        "m_Entries": [
            {
                "m_Name": "Filter by all listed tags",
                "m_Selected": false
            },
            {
                "m_Name": "No Filter",
                "m_Selected": false
            },
            {
                "m_Name": "",
                "m_Selected": false
            },
            {
                "m_Name": "Tag Control...",
                "m_Selected": false
            },
            {
                "m_Name": "",
                "m_Selected": false
            },
            {
                "m_Name": "Unity",
                "m_Selected": true
            },
            {
                "m_Name": "CRASH",
                "m_Selected": false
            }
        ]
    },
    "m_MemoryViewerState": {
        "MemoryWindowHeight": 300.0,
        "MemoryWindowWidth": 170.0,
        "MemoryTypeEnabled": [
            true,
            true,
            true,
            true,
            true,
            true,
            true,
            true,
            true,
            true
        ],
        "MemoryGroup": 2,
        "Behavior": 0
    },
    "m_FilterOptions": {
        "m_Filter": "",
        "m_UseRegularExpressions": false,
        "m_MatchCase": false
    },
    "m_SymbolPaths": [],
    "m_CaptureVideoSettings": {
        "TimeLimitEnabled": false,
        "TimeLimit": 180,
        "VideoSizeEnabled": false,
        "VideoSizeX": 1280,
        "VideoSizeY": 720,
        "BitRateEnabled": false,
        "BitRateK": 20000,
        "DisplayIdEnabled": false,
        "DisplayId": ""
    }
}